{
    "_id": "TMNAVehicles/3116278583/1",
    "Entity": {
        "UnitId": "3116278583",
        "URN": "124A103990",
        "VIN": "4T1BF1FK2FU484160",
        "ModelYear": "2015",
        "Model": "2546",
        "Serial": "FU484160",
        "ImpDomSource": "D",
        "CheckCode": "8",
        "DummyVIN": "4T1BF1FK9FU42D974",
        "VehOrder": "5392196",
        "VehOrderYear": "2014",
        "VehOrderMonth": "09",
        "VehStatusDetail": {
            "VehCategory": "G",
            "VehStatus": "00",
            "VehLocation": "GT"
        },
        "DlrInfo": {
            "CurDlr": {
                "CurDlrCode": "32024",
                "CurArea": "500"
            }
        },
        "ColorCombo": {
            "ExteriorColorCode": "0070",
            "InteriorColorCode": "20",
            "TrimCode": "FF"
        },
        "OptionList": {
            "OptionListCount": "5",
            "OptionListMSRP": "3455.00",
            "OptionListDlrPrice": "3075.00",
            "OptionListDistrPrice": "2757.00",
            "Option": [
                {
                    "OptCode": "CP",
                    "OptType": "F",
                    "OptPricePhase": "A",
                    "OptPkgInd": true,
                    "OptDistrPrice": "679.00",
                    "OptPkgDiscountAmt": "0",
                    "OptDlrPrice": "752.00",
                    "OptMSRP": "845.00"
                },
                {
                    "OptCode": "EE",
                    "OptType": "F",
                    "OptPricePhase": "A",
                    "OptPkgInd": true,
                    "OptDistrPrice": "1026.00",
                    "OptPkgDiscountAmt": "0",
                    "OptDlrPrice": "1157.00",
                    "OptMSRP": "1300.00"
                },
                {
                    "OptCode": "FE",
                    "OptType": "F",
                    "OptPricePhase": "A",
                    "OptPkgInd": false,
                    "OptDistrPrice": "0",
                    "OptPkgDiscountAmt": "0",
                    "OptDlrPrice": "0",
                    "OptMSRP": "0"
                },
                {
                    "OptCode": "PC",
                    "OptType": "F",
                    "OptPricePhase": "A",
                    "OptPkgInd": false,
                    "OptDistrPrice": "317.00",
                    "OptPkgDiscountAmt": "0",
                    "OptDlrPrice": "352.00",
                    "OptMSRP": "395.00"
                },
                {
                    "OptCode": "SR",
                    "OptType": "F",
                    "OptPricePhase": "A",
                    "OptPkgInd": false,
                    "OptDistrPrice": "735.00",
                    "OptPkgDiscountAmt": "0",
                    "OptDlrPrice": "814.00",
                    "OptMSRP": "915.00"
                }
            ]
        },
        "VehChange": {
            "VehChgEligInd": false,
            "DistrVehChgEligInd": true,
            "SwapFromDate": "1900-01-01",
            "SwapToDate": "1900-01-01"
        },
        "Reserve": {
            "DlrReserveInd": false
        },
        "VehPrice": {
            "PricePhase": "A"
        },
        "Fleet": {
            "FleetVehInd": false
        },
        "HoldCode": "N",
        "Vessel": {
            "VesselID": "14742",
            "VesselEstDeparture": "0001-01-01",
            "VesselPortEntry": "GT"
        },
        "Production": {
            "Plant": "G",
            "TargetBuildDate": "1900-01-01"
        }
    }
}
{
    "_id": "TMNAVehicles/3116548592/1",
    "Entity": {
        "UnitId": "3116548592",
        "URN": "134B201104",
        "VIN": "2T1BURHE2FC311607",
        "ModelYear": "2015",
        "Model": "1852",
        "Serial": "FC311607",
        "ImpDomSource": "D",
        "CheckCode": "5",
        "DummyVIN": "2T1BURHE4FC48A595",
        "VehOrder": "5411278",
        "VehOrderYear": "2014",
        "VehOrderMonth": "10",
        "VehStatusDetail": {
            "VehCategory": "G",
            "VehStatus": "00",
            "VehLocation": "CM"
        },
        "DlrInfo": {
            "CurDlr": {
                "CurDlrCode": "09216",
                "CurArea": "500"
            }
        },
        "ColorCombo": {
            "ExteriorColorCode": "0209",
            "InteriorColorCode": "16",
            "TrimCode": "FB"
        },
        "OptionList": {
            "OptionListCount": "1",
            "OptionListMSRP": "0",
            "OptionListDlrPrice": "0",
            "OptionListDistrPrice": "0",
            "Option": [
                {
                    "OptCode": "FE",
                    "OptType": "F",
                    "OptPricePhase": "A",
                    "OptPkgInd": false,
                    "OptDistrPrice": "0",
                    "OptPkgDiscountAmt": "0",
                    "OptDlrPrice": "0",
                    "OptMSRP": "0"
                }
            ]
        },
        "VehChange": {
            "VehChgEligInd": false,
            "DistrVehChgEligInd": true,
            "SwapFromDate": "1900-01-01",
            "SwapToDate": "1900-01-01"
        },
        "Reserve": {
            "DlrReserveInd": false
        },
        "VehPrice": {
            "PricePhase": "C"
        },
        "Fleet": {
            "FleetVehInd": false
        },
        "HoldCode": "N",
        "Vessel": {
            "VesselID": "14748",
            "VesselEstDeparture": "0001-01-01",
            "VesselPortEntry": "CM"
        },
        "Production": {
            "Plant": "C",
            "TargetBuildDate": "1900-01-01"
        }
    }
}
{
    "_id": "TMNAVehicles/3116988166/1",
    "Entity": {
        "UnitId": "3116988166",
        "URN": "1251147319",
        "VIN": "4T1BF1FK0FU915692",
        "ModelYear": "2015",
        "Model": "2532",
        "Serial": "FU915692",
        "ImpDomSource": "D",
        "CheckCode": "5",
        "DummyVIN": "4T1BF1FK9FU02G992",
        "VehOrder": "5448432",
        "VehOrderYear": "2014",
        "VehOrderMonth": "12",
        "VehStatusDetail": {
            "VehCategory": "G",
            "VehStatus": "00",
            "VehLocation": "GT"
        },
        "DlrInfo": {
            "CurDlr": {
                "CurDlrCode": "09216",
                "CurArea": "500"
            }
        },
        "ColorCombo": {
            "ExteriorColorCode": "0040",
            "InteriorColorCode": "10",
            "TrimCode": "FC"
        },
        "OptionList": {
            "OptionListCount": "1",
            "OptionListMSRP": "0",
            "OptionListDlrPrice": "0",
            "OptionListDistrPrice": "0",
            "Option": [
                {
                    "OptCode": "FE",
                    "OptType": "F",
                    "OptPricePhase": "A",
                    "OptPkgInd": false,
                    "OptDistrPrice": "0",
                    "OptPkgDiscountAmt": "0",
                    "OptDlrPrice": "0",
                    "OptMSRP": "0"
                }
            ]
        },
        "VehChange": {
            "VehChgEligInd": false,
            "DistrVehChgEligInd": true,
            "SwapFromDate": "1900-01-01",
            "SwapToDate": "1900-01-01"
        },
        "Reserve": {
            "DlrReserveInd": false
        },
        "VehPrice": {
            "PricePhase": "A"
        },
        "Fleet": {
            "FleetVehInd": false
        },
        "HoldCode": "N",
        "Vessel": {
            "VesselID": "15702",
            "VesselEstDeparture": "0001-01-01",
            "VesselPortEntry": "GT"
        },
        "Production": {
            "Plant": "G",
            "TargetBuildDate": "1900-01-01"
        }
    }
}
{
    "_id": "TMNAVehicles/3116547699/1",
    "Entity": {
        "UnitId": "3116547699",
        "URN": "134B200211",
        "VIN": "2T1BURHE2FC302549",
        "ModelYear": "2015",
        "Model": "1852",
        "Serial": "FC302549",
        "ImpDomSource": "D",
        "CheckCode": "4",
        "DummyVIN": "2T1BURHE1FC46D169",
        "VehOrder": "5411278",
        "VehOrderYear": "2014",
        "VehOrderMonth": "10",
        "VehStatusDetail": {
            "VehCategory": "G",
            "VehStatus": "00",
            "VehLocation": "CM"
        },
        "DlrInfo": {
            "CurDlr": {
                "CurDlrCode": "09216",
                "CurArea": "500"
            }
        },
        "ColorCombo": {
            "ExteriorColorCode": "01F7",
            "InteriorColorCode": "16",
            "TrimCode": "FB"
        },
        "OptionList": {
            "OptionListCount": "1",
            "OptionListMSRP": "0",
            "OptionListDlrPrice": "0",
            "OptionListDistrPrice": "0",
            "Option": [
                {
                    "OptCode": "FE",
                    "OptType": "F",
                    "OptPricePhase": "A",
                    "OptPkgInd": false,
                    "OptDistrPrice": "0",
                    "OptPkgDiscountAmt": "0",
                    "OptDlrPrice": "0",
                    "OptMSRP": "0"
                }
            ]
        },
        "VehChange": {
            "VehChgEligInd": false,
            "DistrVehChgEligInd": true,
            "SwapFromDate": "1900-01-01",
            "SwapToDate": "1900-01-01"
        },
        "Reserve": {
            "DlrReserveInd": false
        },
        "VehPrice": {
            "PricePhase": "A"
        },
        "Fleet": {
            "FleetVehInd": false
        },
        "HoldCode": "N",
        "Vessel": {
            "VesselID": "14746",
            "VesselEstDeparture": "0001-01-01",
            "VesselPortEntry": "CM"
        },
        "Production": {
            "Plant": "C",
            "TargetBuildDate": "1900-01-01"
        }
    }
}
{
    "_id": "TMNAVehicles/3116971731/1",
    "Entity": {
        "UnitId": "3116971731",
        "URN": "1251130884",
        "VIN": "4T1BF1FK3FU022478",
        "ModelYear": "2015",
        "Model": "2546",
        "Serial": "FU022478",
        "ImpDomSource": "D",
        "CheckCode": "3",
        "DummyVIN": "4T1BF1FK2FU02E436",
        "VehOrder": "5448465",
        "VehOrderYear": "2014",
        "VehOrderMonth": "12",
        "VehStatusDetail": {
            "VehCategory": "G",
            "VehStatus": "00",
            "VehLocation": "GT"
        },
        "DlrInfo": {
            "CurDlr": {
                "CurDlrCode": "32110",
                "CurArea": "500"
            }
        },
        "ColorCombo": {
            "ExteriorColorCode": "0070",
            "InteriorColorCode": "20",
            "TrimCode": "FF"
        },
        "OptionList": {
            "OptionListCount": "2",
            "OptionListMSRP": "395.00",
            "OptionListDlrPrice": "352.00",
            "OptionListDistrPrice": "317.00",
            "Option": [
                {
                    "OptCode": "FE",
                    "OptType": "F",
                    "OptPricePhase": "A",
                    "OptPkgInd": false,
                    "OptDistrPrice": "0",
                    "OptPkgDiscountAmt": "0",
                    "OptDlrPrice": "0",
                    "OptMSRP": "0"
                },
                {
                    "OptCode": "PC",
                    "OptType": "F",
                    "OptPricePhase": "A",
                    "OptPkgInd": false,
                    "OptDistrPrice": "317.00",
                    "OptPkgDiscountAmt": "0",
                    "OptDlrPrice": "352.00",
                    "OptMSRP": "395.00"
                }
            ]
        },
        "VehChange": {
            "VehChgEligInd": false,
            "DistrVehChgEligInd": true,
            "SwapFromDate": "1900-01-01",
            "SwapToDate": "1900-01-01"
        },
        "Reserve": {
            "DlrReserveInd": false
        },
        "VehPrice": {
            "PricePhase": "A"
        },
        "Fleet": {
            "FleetVehInd": false
        },
        "HoldCode": "N",
        "Vessel": {
            "VesselID": "15702",
            "VesselEstDeparture": "0001-01-01",
            "VesselPortEntry": "GT"
        },
        "Production": {
            "Plant": "G",
            "TargetBuildDate": "1900-01-01"
        }
    }
}
{
    "_id": "TMNAVehicles/3116720720/1",
    "Entity": {
        "UnitId": "3116720720",
        "URN": "1V4C036833",
        "VIN": "5YFBURHE4FP249661",
        "ModelYear": "2015",
        "Model": "1864",
        "Serial": "FP249661",
        "ImpDomSource": "D",
        "CheckCode": "6",
        "DummyVIN": "5YFBURHEXFP50A753",
        "VehOrder": "5431205",
        "VehOrderYear": "2014",
        "VehOrderMonth": "11",
        "VehStatusDetail": {
            "VehCategory": "G",
            "VehStatus": "00",
            "VehLocation": "TP"
        },
        "DlrInfo": {
            "CurDlr": {
                "CurDlrCode": "10125",
                "CurArea": "500"
            }
        },
        "ColorCombo": {
            "ExteriorColorCode": "0209",
            "InteriorColorCode": "80",
            "TrimCode": "FD"
        },
        "OptionList": {
            "OptionListCount": "2",
            "OptionListMSRP": "0",
            "OptionListDlrPrice": "0",
            "OptionListDistrPrice": "0",
            "Option": [
                {
                    "OptCode": "FE",
                    "OptType": "F",
                    "OptPricePhase": "A",
                    "OptPkgInd": false,
                    "OptDistrPrice": "0",
                    "OptPkgDiscountAmt": "0",
                    "OptDlrPrice": "0",
                    "OptMSRP": "0"
                },
                {
                    "OptCode": "SL",
                    "OptType": "F",
                    "OptPricePhase": "A",
                    "OptPkgInd": true,
                    "OptDistrPrice": "0",
                    "OptPkgDiscountAmt": "0",
                    "OptDlrPrice": "0",
                    "OptMSRP": "0"
                }
            ]
        },
        "VehChange": {
            "VehChgEligInd": false,
            "DistrVehChgEligInd": true,
            "SwapFromDate": "1900-01-01",
            "SwapToDate": "1900-01-01"
        },
        "Reserve": {
            "DlrReserveInd": false
        },
        "VehPrice": {
            "PricePhase": "C"
        },
        "Fleet": {
            "FleetVehInd": false
        },
        "HoldCode": "N",
        "Vessel": {
            "VesselID": "14750",
            "VesselEstDeparture": "0001-01-01",
            "VesselPortEntry": "TP"
        },
        "Production": {
            "Plant": "T",
            "TargetBuildDate": "1900-01-01"
        }
    }
}
{
    "_id": "TMNAVehicles/3116614908/1",
    "Entity": {
        "UnitId": "3116614908",
        "URN": "J14O180701",
        "VIN": "JTDKN3DU2F0420389",
        "ModelYear": "2015",
        "Model": "1228",
        "Serial": "F0420389",
        "ImpDomSource": "I",
        "CheckCode": "5",
        "DummyVIN": "JTDKN3DU4F143DZ35",
        "VehOrder": "5409575",
        "VehOrderYear": "2014",
        "VehOrderMonth": "10",
        "VehStatusDetail": {
            "VehCategory": "G",
            "VehStatus": "00",
            "VehLocation": "JX"
        },
        "DlrInfo": {
            "CurDlr": {
                "CurDlrCode": "09159",
                "CurArea": "500"
            }
        },
        "ColorCombo": {
            "ExteriorColorCode": "03P0",
            "InteriorColorCode": "29",
            "TrimCode": "LC"
        },
        "OptionList": {
            "OptionListCount": "2",
            "OptionListMSRP": "0",
            "OptionListDlrPrice": "0",
            "OptionListDistrPrice": "0",
            "Option": [
                {
                    "OptCode": "FE",
                    "OptType": "F",
                    "OptPricePhase": "A",
                    "OptPkgInd": false,
                    "OptDistrPrice": "0",
                    "OptPkgDiscountAmt": "0",
                    "OptDlrPrice": "0",
                    "OptMSRP": "0"
                },
                {
                    "OptCode": "SE",
                    "OptType": "F",
                    "OptPricePhase": "A",
                    "OptPkgInd": false,
                    "OptDistrPrice": "0",
                    "OptPkgDiscountAmt": "0",
                    "OptDlrPrice": "0",
                    "OptMSRP": "0"
                }
            ]
        },
        "VehChange": {
            "VehChgEligInd": false,
            "DistrVehChgEligInd": true,
            "SwapFromDate": "1900-01-01",
            "SwapToDate": "1900-01-01"
        },
        "Reserve": {
            "DlrReserveInd": false
        },
        "VehPrice": {
            "PricePhase": "A"
        },
        "Fleet": {
            "FleetVehInd": false
        },
        "HoldCode": "N",
        "Vessel": {
            "VesselID": "14234",
            "VesselEstDeparture": "2014-10-30",
            "VesselPortEntry": "JX"
        },
        "Production": {
            "Plant": "N",
            "TargetBuildDate": "1900-01-01"
        }
    }
}
{
    "_id": "TMNAVehicles/3116745742/1",
    "Entity": {
        "UnitId": "3116745742",
        "URN": "124C078081",
        "VIN": "4T1BF1FK1FU011611",
        "ModelYear": "2015",
        "Model": "2546",
        "Serial": "FU011611",
        "ImpDomSource": "D",
        "CheckCode": "2",
        "DummyVIN": "4T1BF1FK4FU50E428",
        "VehOrder": "5428789",
        "VehOrderYear": "2014",
        "VehOrderMonth": "11",
        "VehStatusDetail": {
            "VehCategory": "G",
            "VehStatus": "00",
            "VehLocation": "GT"
        },
        "DlrInfo": {
            "CurDlr": {
                "CurDlrCode": "09107",
                "CurArea": "500"
            }
        },
        "ColorCombo": {
            "ExteriorColorCode": "0218",
            "InteriorColorCode": "20",
            "TrimCode": "FF"
        },
        "OptionList": {
            "OptionListCount": "1",
            "OptionListMSRP": "0",
            "OptionListDlrPrice": "0",
            "OptionListDistrPrice": "0",
            "Option": [
                {
                    "OptCode": "FE",
                    "OptType": "F",
                    "OptPricePhase": "A",
                    "OptPkgInd": false,
                    "OptDistrPrice": "0",
                    "OptPkgDiscountAmt": "0",
                    "OptDlrPrice": "0",
                    "OptMSRP": "0"
                }
            ]
        },
        "VehChange": {
            "VehChgEligInd": false,
            "DistrVehChgEligInd": true,
            "SwapFromDate": "1900-01-01",
            "SwapToDate": "1900-01-01"
        },
        "Reserve": {
            "DlrReserveInd": false
        },
        "VehPrice": {
            "PricePhase": "A"
        },
        "Fleet": {
            "FleetVehInd": false
        },
        "HoldCode": "N",
        "Vessel": {
            "VesselID": "14750",
            "VesselEstDeparture": "0001-01-01",
            "VesselPortEntry": "GT"
        },
        "Production": {
            "Plant": "G",
            "TargetBuildDate": "1900-01-01"
        }
    }
}
{
    "_id": "TMNAVehicles/3116756084/1",
    "Entity": {
        "UnitId": "3116756084",
        "URN": "124C088423",
        "VIN": "4T1BF1FK6FU008512",
        "ModelYear": "2015",
        "Model": "2532",
        "Serial": "FU008512",
        "ImpDomSource": "D",
        "CheckCode": "3",
        "DummyVIN": "4T1BF1FK4FU49I744",
        "VehOrder": "5428733",
        "VehOrderYear": "2014",
        "VehOrderMonth": "11",
        "VehStatusDetail": {
            "VehCategory": "G",
            "VehStatus": "00",
            "VehLocation": "GT"
        },
        "DlrInfo": {
            "CurDlr": {
                "CurDlrCode": "09216",
                "CurArea": "500"
            }
        },
        "ColorCombo": {
            "ExteriorColorCode": "01H1",
            "InteriorColorCode": "10",
            "TrimCode": "FC"
        },
        "OptionList": {
            "OptionListCount": "1",
            "OptionListMSRP": "0",
            "OptionListDlrPrice": "0",
            "OptionListDistrPrice": "0",
            "Option": [
                {
                    "OptCode": "FE",
                    "OptType": "F",
                    "OptPricePhase": "A",
                    "OptPkgInd": false,
                    "OptDistrPrice": "0",
                    "OptPkgDiscountAmt": "0",
                    "OptDlrPrice": "0",
                    "OptMSRP": "0"
                }
            ]
        },
        "VehChange": {
            "VehChgEligInd": false,
            "DistrVehChgEligInd": true,
            "SwapFromDate": "1900-01-01",
            "SwapToDate": "1900-01-01"
        },
        "Reserve": {
            "DlrReserveInd": false
        },
        "VehPrice": {
            "PricePhase": "A"
        },
        "Fleet": {
            "FleetVehInd": false
        },
        "HoldCode": "N",
        "Vessel": {
            "VesselID": "14749",
            "VesselEstDeparture": "0001-01-01",
            "VesselPortEntry": "GT"
        },
        "Production": {
            "Plant": "G",
            "TargetBuildDate": "1900-01-01"
        }
    }
}
{
    "_id": "TMNAVehicles/3117015772/1",
    "Entity": {
        "UnitId": "3117015772",
        "URN": "1351156698",
        "VIN": "2T1BURHE6FC345095",
        "ModelYear": "2015",
        "Model": "1864",
        "Serial": "FC345095",
        "ImpDomSource": "D",
        "CheckCode": "9",
        "DummyVIN": "2T1BURHEXFC02D189",
        "VehOrder": "5449200",
        "VehOrderYear": "2014",
        "VehOrderMonth": "12",
        "VehStatusDetail": {
            "VehCategory": "G",
            "VehStatus": "00",
            "VehLocation": "CM"
        },
        "DlrInfo": {
            "CurDlr": {
                "CurDlrCode": "09113",
                "CurArea": "500"
            }
        },
        "ColorCombo": {
            "ExteriorColorCode": "0040",
            "InteriorColorCode": "80",
            "TrimCode": "FD"
        },
        "OptionList": {
            "OptionListCount": "2",
            "OptionListMSRP": "0",
            "OptionListDlrPrice": "0",
            "OptionListDistrPrice": "0",
            "Option": [
                {
                    "OptCode": "FE",
                    "OptType": "F",
                    "OptPricePhase": "A",
                    "OptPkgInd": false,
                    "OptDistrPrice": "0",
                    "OptPkgDiscountAmt": "0",
                    "OptDlrPrice": "0",
                    "OptMSRP": "0"
                },
                {
                    "OptCode": "SL",
                    "OptType": "F",
                    "OptPricePhase": "A",
                    "OptPkgInd": true,
                    "OptDistrPrice": "0",
                    "OptPkgDiscountAmt": "0",
                    "OptDlrPrice": "0",
                    "OptMSRP": "0"
                }
            ]
        },
        "VehChange": {
            "VehChgEligInd": false,
            "DistrVehChgEligInd": true,
            "SwapFromDate": "1900-01-01",
            "SwapToDate": "1900-01-01"
        },
        "Reserve": {
            "DlrReserveInd": false
        },
        "VehPrice": {
            "PricePhase": "C"
        },
        "Fleet": {
            "FleetVehInd": false
        },
        "HoldCode": "N",
        "Vessel": {
            "VesselID": "15702",
            "VesselEstDeparture": "0001-01-01",
            "VesselPortEntry": "CM"
        },
        "Production": {
            "Plant": "C",
            "TargetBuildDate": "1900-01-01"
        }
    }
}
{
    "_id": "TMNAVehicles/3117407382/1",
    "Entity": {
        "UnitId": "3117407382",
        "URN": "1V53052948",
        "VIN": "5YFBPRHE0FP11A784",
        "ModelYear": "2015",
        "Model": "1874",
        "Serial": "FP11A784",
        "ImpDomSource": "D",
        "CheckCode": "4",
        "DummyVIN": "5YFBPRHE0FP11A784",
        "VehOrder": "5489508",
        "VehOrderYear": "2015",
        "VehOrderMonth": "02",
        "CompanyCar": "",
        "VehStatusDetail": {
            "VehCategory": "R",
            "VehStatus": "01",
            "VehLocation": "TP"
        },
        "DlrInfo": {
            "CurDlr": {
                "CurDlrCode": "00500",
                "CurArea": "500"
            }
        },
        "ColorCombo": {
            "ExteriorColorCode": "0070",
            "InteriorColorCode": "01",
            "TrimCode": "FB"
        },
        "OptionList": {
            "OptionListCount": "4",
            "OptionListMSRP": "2755",
            "OptionListDlrPrice": "2452",
            "OptionListDistrPrice": "2195",
            "Option": [
                {
                    "OptCode": "EX",
                    "OptType": "F",
                    "OptPricePhase": "A",
                    "OptPkgInd": true,
                    "OptDistrPrice": "1195",
                    "OptPkgDiscountAmt": "0",
                    "OptDlrPrice": "1343",
                    "OptMSRP": "1510"
                },
                {
                    "OptCode": "FE",
                    "OptType": "F",
                    "OptPricePhase": "A",
                    "OptPkgInd": false,
                    "OptDistrPrice": "0",
                    "OptPkgDiscountAmt": "0",
                    "OptDlrPrice": "0",
                    "OptMSRP": "0"
                },
                {
                    "OptCode": "MR",
                    "OptType": "F",
                    "OptPricePhase": "A",
                    "OptPkgInd": true,
                    "OptDistrPrice": "683",
                    "OptPkgDiscountAmt": "0",
                    "OptDlrPrice": "757",
                    "OptMSRP": "850"
                },
                {
                    "OptCode": "PC",
                    "OptType": "F",
                    "OptPricePhase": "A",
                    "OptPkgInd": false,
                    "OptDistrPrice": "317",
                    "OptPkgDiscountAmt": "0",
                    "OptDlrPrice": "352",
                    "OptMSRP": "395"
                }
            ]
        },
        "VehChange": {
            "VehMatchGrp": "2",
            "VehChgEligInd": true,
            "DistrVehChgEligInd": true,
            "SwapFromDate": "2015-03-06",
            "SwapToDate": "2015-03-26"
        },
        "DistStatus": {
            "AllocLckdCode": ""
        },
        "Reserve": {
            "DlrReserveInd": false
        },
        "VehPrice": {
            "PricePhase": "E"
        },
        "Fleet": {
            "FleetVehInd": false
        },
        "HoldCode": "N",
        "Vessel": {
            "VesselID": "15711",
            "VesselEstDeparture": "0001-01-01",
            "VesselPortEntry": "TP"
        },
        "Production": {
            "Plant": "T",
            "TargetBuildDate": "2015-03-16"
        }
    }
}
{
    "_id": "TMNAVehicles/3117238790/1",
    "Entity": {
        "UnitId": "3117238790",
        "URN": "1352132366",
        "VIN": "2T1BPRHEXFC371786",
        "ModelYear": "2015",
        "Model": "1874",
        "Serial": "FC371786",
        "ImpDomSource": "D",
        "CheckCode": "3",
        "DummyVIN": "2T1BPRHE3FC08C222",
        "VehOrder": "5468759",
        "VehOrderYear": "2015",
        "VehOrderMonth": "01",
        "VehStatusDetail": {
            "VehCategory": "G",
            "VehStatus": "00",
            "VehLocation": "CM"
        },
        "DlrInfo": {
            "CurDlr": {
                "CurDlrCode": "10125",
                "CurArea": "500"
            }
        },
        "ColorCombo": {
            "ExteriorColorCode": "01F9",
            "InteriorColorCode": "01",
            "TrimCode": "FB"
        },
        "OptionList": {
            "OptionListCount": "1",
            "OptionListMSRP": "0",
            "OptionListDlrPrice": "0",
            "OptionListDistrPrice": "0",
            "Option": [
                {
                    "OptCode": "FE",
                    "OptType": "F",
                    "OptPricePhase": "A",
                    "OptPkgInd": false,
                    "OptDistrPrice": "0",
                    "OptPkgDiscountAmt": "0",
                    "OptDlrPrice": "0",
                    "OptMSRP": "0"
                }
            ]
        },
        "VehChange": {
            "VehChgEligInd": false,
            "DistrVehChgEligInd": true,
            "SwapFromDate": "1900-01-01",
            "SwapToDate": "1900-01-01"
        },
        "Reserve": {
            "DlrReserveInd": false
        },
        "VehPrice": {
            "PricePhase": "E"
        },
        "Fleet": {
            "FleetVehInd": false
        },
        "HoldCode": "N",
        "Vessel": {
            "VesselID": "15708",
            "VesselEstDeparture": "0001-01-01",
            "VesselPortEntry": "CM"
        },
        "Production": {
            "Plant": "C",
            "TargetBuildDate": "1900-01-01"
        }
    }
}
{
    "_id": "TMNAVehicles/3117392395/1",
    "Entity": {
        "UnitId": "3117392395",
        "URN": "1T53061798",
        "VIN": "5TFDW5F18FX12D899",
        "ModelYear": "2015",
        "Model": "8363",
        "Serial": "FX12D899",
        "ImpDomSource": "D",
        "CheckCode": "3",
        "DummyVIN": "5TFDW5F18FX12D899",
        "VehOrder": "5488708",
        "VehOrderYear": "2015",
        "VehOrderMonth": "02",
        "CompanyCar": "",
        "VehStatusDetail": {
            "VehCategory": "R",
            "VehStatus": "01",
            "VehLocation": "SA"
        },
        "DlrInfo": {
            "CurDlr": {
                "CurDlrCode": "00500",
                "CurArea": "500"
            }
        },
        "ColorCombo": {
            "ExteriorColorCode": "01G3",
            "InteriorColorCode": "20",
            "TrimCode": "FB"
        },
        "OptionList": {
            "OptionListCount": "5",
            "OptionListMSRP": "3755",
            "OptionListDlrPrice": "3342",
            "OptionListDistrPrice": "3030",
            "Option": [
                {
                    "OptCode": "DS",
                    "OptType": "F",
                    "OptPricePhase": "A",
                    "OptPkgInd": false,
                    "OptDistrPrice": "100",
                    "OptPkgDiscountAmt": "0",
                    "OptDlrPrice": "112",
                    "OptMSRP": "125"
                },
                {
                    "OptCode": "EE",
                    "OptType": "F",
                    "OptPricePhase": "A",
                    "OptPkgInd": true,
                    "OptDistrPrice": "483",
                    "OptPkgDiscountAmt": "0",
                    "OptDlrPrice": "521",
                    "OptMSRP": "585"
                },
                {
                    "OptCode": "OF",
                    "OptType": "F",
                    "OptPricePhase": "A",
                    "OptPkgInd": true,
                    "OptDistrPrice": "1631",
                    "OptPkgDiscountAmt": "0",
                    "OptDlrPrice": "1807",
                    "OptMSRP": "2030"
                },
                {
                    "OptCode": "RE",
                    "OptType": "F",
                    "OptPricePhase": "A",
                    "OptPkgInd": false,
                    "OptDistrPrice": "0",
                    "OptPkgDiscountAmt": "0",
                    "OptDlrPrice": "0",
                    "OptMSRP": "0"
                },
                {
                    "OptCode": "SP",
                    "OptType": "F",
                    "OptPricePhase": "A",
                    "OptPkgInd": true,
                    "OptDistrPrice": "816",
                    "OptPkgDiscountAmt": "0",
                    "OptDlrPrice": "902",
                    "OptMSRP": "1015"
                }
            ]
        },
        "VehChange": {
            "VehMatchGrp": "2",
            "VehChgEligInd": true,
            "DistrVehChgEligInd": true,
            "SwapFromDate": "2015-03-13",
            "SwapToDate": "2015-04-02"
        },
        "DistStatus": {
            "AllocLckdCode": ""
        },
        "Reserve": {
            "DlrReserveInd": false
        },
        "VehPrice": {
            "PricePhase": "C"
        },
        "Fleet": {
            "FleetVehInd": false
        },
        "HoldCode": "N",
        "Vessel": {
            "VesselID": "15712",
            "VesselEstDeparture": "0001-01-01",
            "VesselPortEntry": "SA"
        },
        "Production": {
            "Plant": "S",
            "TargetBuildDate": "2015-03-23"
        }
    }
}
{
    "_id": "TMNAVehicles/3117436443/1",
    "Entity": {
        "UnitId": "3117436443",
        "URN": "1253210022",
        "VIN": "4T1BD1EB4FU11A841",
        "ModelYear": "2015",
        "Model": "3514",
        "Serial": "FU11A841",
        "ImpDomSource": "D",
        "CheckCode": "0",
        "DummyVIN": "4T1BD1EB4FU11A841",
        "VehOrder": "5487552",
        "VehOrderYear": "2015",
        "VehOrderMonth": "02",
        "CompanyCar": "",
        "VehStatusDetail": {
            "VehCategory": "R",
            "VehStatus": "01",
            "VehLocation": "GT"
        },
        "DlrInfo": {
            "CurDlr": {
                "CurDlrCode": "00500",
                "CurArea": "500"
            }
        },
        "ColorCombo": {
            "ExteriorColorCode": "0070",
            "InteriorColorCode": "03",
            "TrimCode": "LM"
        },
        "OptionList": {
            "OptionListCount": "3",
            "OptionListMSRP": "2345",
            "OptionListDlrPrice": "2088",
            "OptionListDistrPrice": "1884",
            "Option": [
                {
                    "OptCode": "AY",
                    "OptType": "F",
                    "OptPricePhase": "A",
                    "OptPkgInd": true,
                    "OptDistrPrice": "1567",
                    "OptPkgDiscountAmt": "0",
                    "OptDlrPrice": "1736",
                    "OptMSRP": "1950"
                },
                {
                    "OptCode": "FE",
                    "OptType": "F",
                    "OptPricePhase": "A",
                    "OptPkgInd": false,
                    "OptDistrPrice": "0",
                    "OptPkgDiscountAmt": "0",
                    "OptDlrPrice": "0",
                    "OptMSRP": "0"
                },
                {
                    "OptCode": "PC",
                    "OptType": "F",
                    "OptPricePhase": "A",
                    "OptPkgInd": false,
                    "OptDistrPrice": "317",
                    "OptPkgDiscountAmt": "0",
                    "OptDlrPrice": "352",
                    "OptMSRP": "395"
                }
            ]
        },
        "VehChange": {
            "VehMatchGrp": "2",
            "VehChgEligInd": true,
            "DistrVehChgEligInd": true,
            "SwapFromDate": "2015-03-06",
            "SwapToDate": "2015-03-26"
        },
        "DistStatus": {
            "AllocLckdCode": ""
        },
        "Reserve": {
            "DlrReserveInd": false
        },
        "VehPrice": {
            "PricePhase": "A"
        },
        "Fleet": {
            "FleetVehInd": false
        },
        "HoldCode": "N",
        "Vessel": {
            "VesselID": "15711",
            "VesselEstDeparture": "0001-01-01",
            "VesselPortEntry": "GT"
        },
        "Production": {
            "Plant": "G",
            "TargetBuildDate": "2015-03-16"
        }
    }
}
{
    "_id": "TMNAVehicles/3117388322/1",
    "Entity": {
        "UnitId": "3117388322",
        "URN": "1T53057725",
        "VIN": "5TFAW5F13FX10D997",
        "ModelYear": "2015",
        "Model": "8378",
        "Serial": "FX10D997",
        "ImpDomSource": "D",
        "CheckCode": "2",
        "DummyVIN": "5TFAW5F13FX10D997",
        "VehOrder": "5488659",
        "VehOrderYear": "2015",
        "VehOrderMonth": "02",
        "CompanyCar": "",
        "VehStatusDetail": {
            "VehCategory": "R",
            "VehStatus": "01",
            "VehLocation": "SA"
        },
        "DlrInfo": {
            "CurDlr": {
                "CurDlrCode": "00500",
                "CurArea": "500"
            }
        },
        "ColorCombo": {
            "ExteriorColorCode": "01D6",
            "InteriorColorCode": "21",
            "TrimCode": "LD"
        },
        "OptionList": {
            "OptionListCount": "3",
            "OptionListMSRP": "470",
            "OptionListDlrPrice": "418",
            "OptionListDistrPrice": "378",
            "Option": [
                {
                    "OptCode": "BE",
                    "OptType": "F",
                    "OptPricePhase": "A",
                    "OptPkgInd": true,
                    "OptDistrPrice": "378",
                    "OptPkgDiscountAmt": "0",
                    "OptDlrPrice": "418",
                    "OptMSRP": "470"
                },
                {
                    "OptCode": "LW",
                    "OptType": "F",
                    "OptPricePhase": "A",
                    "OptPkgInd": true,
                    "OptDistrPrice": "0",
                    "OptPkgDiscountAmt": "0",
                    "OptDlrPrice": "0",
                    "OptMSRP": "0"
                },
                {
                    "OptCode": "RE",
                    "OptType": "F",
                    "OptPricePhase": "A",
                    "OptPkgInd": false,
                    "OptDistrPrice": "0",
                    "OptPkgDiscountAmt": "0",
                    "OptDlrPrice": "0",
                    "OptMSRP": "0"
                }
            ]
        },
        "VehChange": {
            "VehMatchGrp": "2",
            "VehChgEligInd": true,
            "DistrVehChgEligInd": true,
            "SwapFromDate": "2015-02-27",
            "SwapToDate": "2015-03-19"
        },
        "DistStatus": {
            "AllocLckdCode": ""
        },
        "Reserve": {
            "DlrReserveInd": false
        },
        "VehPrice": {
            "PricePhase": "C"
        },
        "Fleet": {
            "FleetVehInd": false
        },
        "HoldCode": "N",
        "Vessel": {
            "VesselID": "15710",
            "VesselEstDeparture": "0001-01-01",
            "VesselPortEntry": "SA"
        },
        "Production": {
            "Plant": "S",
            "TargetBuildDate": "2015-03-09"
        }
    }
}
{
    "_id": "TMNAVehicles/3117436459/1",
    "Entity": {
        "UnitId": "3117436459",
        "URN": "1253210038",
        "VIN": "4T1BD1EB1FU12B098",
        "ModelYear": "2015",
        "Model": "3514",
        "Serial": "FU12B098",
        "ImpDomSource": "D",
        "CheckCode": "4",
        "DummyVIN": "4T1BD1EB1FU12B098",
        "VehOrder": "5487552",
        "VehOrderYear": "2015",
        "VehOrderMonth": "02",
        "CompanyCar": "",
        "VehStatusDetail": {
            "VehCategory": "R",
            "VehStatus": "01",
            "VehLocation": "GT"
        },
        "DlrInfo": {
            "CurDlr": {
                "CurDlrCode": "00500",
                "CurArea": "500"
            }
        },
        "ColorCombo": {
            "ExteriorColorCode": "0070",
            "InteriorColorCode": "20",
            "TrimCode": "LM"
        },
        "OptionList": {
            "OptionListCount": "3",
            "OptionListMSRP": "2345",
            "OptionListDlrPrice": "2088",
            "OptionListDistrPrice": "1884",
            "Option": [
                {
                    "OptCode": "AY",
                    "OptType": "F",
                    "OptPricePhase": "A",
                    "OptPkgInd": true,
                    "OptDistrPrice": "1567",
                    "OptPkgDiscountAmt": "0",
                    "OptDlrPrice": "1736",
                    "OptMSRP": "1950"
                },
                {
                    "OptCode": "FE",
                    "OptType": "F",
                    "OptPricePhase": "A",
                    "OptPkgInd": false,
                    "OptDistrPrice": "0",
                    "OptPkgDiscountAmt": "0",
                    "OptDlrPrice": "0",
                    "OptMSRP": "0"
                },
                {
                    "OptCode": "PC",
                    "OptType": "F",
                    "OptPricePhase": "A",
                    "OptPkgInd": false,
                    "OptDistrPrice": "317",
                    "OptPkgDiscountAmt": "0",
                    "OptDlrPrice": "352",
                    "OptMSRP": "395"
                }
            ]
        },
        "VehChange": {
            "VehMatchGrp": "2",
            "VehChgEligInd": true,
            "DistrVehChgEligInd": true,
            "SwapFromDate": "2015-03-13",
            "SwapToDate": "2015-04-02"
        },
        "DistStatus": {
            "AllocLckdCode": ""
        },
        "Reserve": {
            "DlrReserveInd": false
        },
        "VehPrice": {
            "PricePhase": "A"
        },
        "Fleet": {
            "FleetVehInd": false
        },
        "HoldCode": "N",
        "Vessel": {
            "VesselID": "15712",
            "VesselEstDeparture": "0001-01-01",
            "VesselPortEntry": "GT"
        },
        "Production": {
            "Plant": "G",
            "TargetBuildDate": "2015-03-23"
        }
    }
}
{
    "_id": "TMNAVehicles/3117435732/1",
    "Entity": {
        "UnitId": "3117435732",
        "URN": "1253209310",
        "VIN": "4T1BD1EB5FU09A633",
        "ModelYear": "2015",
        "Model": "3506",
        "Serial": "FU09A633",
        "ImpDomSource": "D",
        "CheckCode": "5",
        "DummyVIN": "4T1BD1EB5FU09A633",
        "VehOrder": "5487601",
        "VehOrderYear": "2015",
        "VehOrderMonth": "02",
        "CompanyCar": "",
        "VehStatusDetail": {
            "VehCategory": "R",
            "VehStatus": "01",
            "VehLocation": "GT"
        },
        "DlrInfo": {
            "CurDlr": {
                "CurDlrCode": "00500",
                "CurArea": "500"
            }
        },
        "ColorCombo": {
            "ExteriorColorCode": "05B2",
            "InteriorColorCode": "03",
            "TrimCode": "LF"
        },
        "OptionList": {
            "OptionListCount": "1",
            "OptionListMSRP": "0",
            "OptionListDlrPrice": "0",
            "OptionListDistrPrice": "0",
            "Option": [
                {
                    "OptCode": "FE",
                    "OptType": "F",
                    "OptPricePhase": "A",
                    "OptPkgInd": false,
                    "OptDistrPrice": "0",
                    "OptPkgDiscountAmt": "0",
                    "OptDlrPrice": "0",
                    "OptMSRP": "0"
                }
            ]
        },
        "VehChange": {
            "VehMatchGrp": "2",
            "VehChgEligInd": true,
            "DistrVehChgEligInd": true,
            "SwapFromDate": "2015-02-20",
            "SwapToDate": "2015-03-12"
        },
        "DistStatus": {
            "AllocLckdCode": ""
        },
        "Reserve": {
            "DlrReserveInd": false
        },
        "VehPrice": {
            "PricePhase": "A"
        },
        "Fleet": {
            "FleetVehInd": false
        },
        "HoldCode": "N",
        "Vessel": {
            "VesselID": "15709",
            "VesselEstDeparture": "0001-01-01",
            "VesselPortEntry": "GT"
        },
        "Production": {
            "Plant": "G",
            "TargetBuildDate": "2015-03-02"
        }
    }
}
{
    "_id": "TMNAVehicles/3117436440/1",
    "Entity": {
        "UnitId": "3117436440",
        "URN": "1253210019",
        "VIN": "4T1BD1EB7FU11A106",
        "ModelYear": "2015",
        "Model": "3514",
        "Serial": "FU11A106",
        "ImpDomSource": "D",
        "CheckCode": "8",
        "DummyVIN": "4T1BD1EB7FU11A106",
        "VehOrder": "5487552",
        "VehOrderYear": "2015",
        "VehOrderMonth": "02",
        "CompanyCar": "",
        "VehStatusDetail": {
            "VehCategory": "R",
            "VehStatus": "01",
            "VehLocation": "GT"
        },
        "DlrInfo": {
            "CurDlr": {
                "CurDlrCode": "00500",
                "CurArea": "500"
            }
        },
        "ColorCombo": {
            "ExteriorColorCode": "0070",
            "InteriorColorCode": "03",
            "TrimCode": "LM"
        },
        "OptionList": {
            "OptionListCount": "3",
            "OptionListMSRP": "2345",
            "OptionListDlrPrice": "2088",
            "OptionListDistrPrice": "1884",
            "Option": [
                {
                    "OptCode": "AY",
                    "OptType": "F",
                    "OptPricePhase": "A",
                    "OptPkgInd": true,
                    "OptDistrPrice": "1567",
                    "OptPkgDiscountAmt": "0",
                    "OptDlrPrice": "1736",
                    "OptMSRP": "1950"
                },
                {
                    "OptCode": "FE",
                    "OptType": "F",
                    "OptPricePhase": "A",
                    "OptPkgInd": false,
                    "OptDistrPrice": "0",
                    "OptPkgDiscountAmt": "0",
                    "OptDlrPrice": "0",
                    "OptMSRP": "0"
                },
                {
                    "OptCode": "PC",
                    "OptType": "F",
                    "OptPricePhase": "A",
                    "OptPkgInd": false,
                    "OptDistrPrice": "317",
                    "OptPkgDiscountAmt": "0",
                    "OptDlrPrice": "352",
                    "OptMSRP": "395"
                }
            ]
        },
        "VehChange": {
            "VehMatchGrp": "2",
            "VehChgEligInd": true,
            "DistrVehChgEligInd": true,
            "SwapFromDate": "2015-03-06",
            "SwapToDate": "2015-03-26"
        },
        "DistStatus": {
            "AllocLckdCode": ""
        },
        "Reserve": {
            "DlrReserveInd": false
        },
        "VehPrice": {
            "PricePhase": "A"
        },
        "Fleet": {
            "FleetVehInd": false
        },
        "HoldCode": "N",
        "Vessel": {
            "VesselID": "15711",
            "VesselEstDeparture": "0001-01-01",
            "VesselPortEntry": "GT"
        },
        "Production": {
            "Plant": "G",
            "TargetBuildDate": "2015-03-16"
        }
    }
}
{
    "_id": "TMNAVehicles/3117432312/1",
    "Entity": {
        "UnitId": "3117432312",
        "URN": "1253205890",
        "VIN": "4T1BK1EB6FU167267",
        "ModelYear": "2015",
        "Model": "3544",
        "Serial": "FU167267",
        "ImpDomSource": "D",
        "CheckCode": "5",
        "DummyVIN": "4T1BK1EB1FU13A521",
        "VehOrder": "5487519",
        "VehOrderYear": "2015",
        "VehOrderMonth": "02",
        "VehStatusDetail": {
            "VehCategory": "G",
            "VehStatus": "00",
            "VehLocation": "GT"
        },
        "DlrInfo": {
            "CurDlr": {
                "CurDlrCode": "10129",
                "CurArea": "500"
            }
        },
        "ColorCombo": {
            "ExteriorColorCode": "03T0",
            "InteriorColorCode": "20",
            "TrimCode": "LD"
        },
        "OptionList": {
            "OptionListCount": "2",
            "OptionListMSRP": "0",
            "OptionListDlrPrice": "0",
            "OptionListDistrPrice": "0",
            "Option": [
                {
                    "OptCode": "FE",
                    "OptType": "F",
                    "OptPricePhase": "A",
                    "OptPkgInd": false,
                    "OptDistrPrice": "0",
                    "OptPkgDiscountAmt": "0",
                    "OptDlrPrice": "0",
                    "OptMSRP": "0"
                },
                {
                    "OptCode": "XL",
                    "OptType": "F",
                    "OptPricePhase": "A",
                    "OptPkgInd": true,
                    "OptDistrPrice": "0",
                    "OptPkgDiscountAmt": "0",
                    "OptDlrPrice": "0",
                    "OptMSRP": "0"
                }
            ]
        },
        "VehChange": {
            "VehChgEligInd": false,
            "DistrVehChgEligInd": true,
            "SwapFromDate": "1900-01-01",
            "SwapToDate": "1900-01-01"
        },
        "Reserve": {
            "DlrReserveInd": false
        },
        "VehPrice": {
            "PricePhase": "A"
        },
        "Fleet": {
            "FleetVehInd": false
        },
        "HoldCode": "N",
        "Vessel": {
            "VesselID": "15713",
            "VesselEstDeparture": "0001-01-01",
            "VesselPortEntry": "GT"
        },
        "Production": {
            "Plant": "G",
            "TargetBuildDate": "1900-01-01"
        }
    }
}
{
    "_id": "TMNAVehicles/3117431854/1",
    "Entity": {
        "UnitId": "3117431854",
        "URN": "1253205432",
        "VIN": "4T1BK1EB8FU12A701",
        "ModelYear": "2015",
        "Model": "3546",
        "Serial": "FU12A701",
        "ImpDomSource": "D",
        "CheckCode": "6",
        "DummyVIN": "4T1BK1EB8FU12A701",
        "VehOrder": "5487482",
        "VehOrderYear": "2015",
        "VehOrderMonth": "02",
        "CompanyCar": "",
        "VehStatusDetail": {
            "VehCategory": "R",
            "VehStatus": "01",
            "VehLocation": "GT"
        },
        "DlrInfo": {
            "CurDlr": {
                "CurDlrCode": "00500",
                "CurArea": "500"
            }
        },
        "ColorCombo": {
            "ExteriorColorCode": "03R0",
            "InteriorColorCode": "20",
            "TrimCode": "LF"
        },
        "OptionList": {
            "OptionListCount": "1",
            "OptionListMSRP": "0",
            "OptionListDlrPrice": "0",
            "OptionListDistrPrice": "0",
            "Option": [
                {
                    "OptCode": "FE",
                    "OptType": "F",
                    "OptPricePhase": "A",
                    "OptPkgInd": false,
                    "OptDistrPrice": "0",
                    "OptPkgDiscountAmt": "0",
                    "OptDlrPrice": "0",
                    "OptMSRP": "0"
                }
            ]
        },
        "VehChange": {
            "VehMatchGrp": "2",
            "VehChgEligInd": true,
            "DistrVehChgEligInd": true,
            "SwapFromDate": "2015-03-13",
            "SwapToDate": "2015-04-02"
        },
        "DistStatus": {
            "AllocLckdCode": ""
        },
        "Reserve": {
            "DlrReserveInd": false
        },
        "VehPrice": {
            "PricePhase": "A"
        },
        "Fleet": {
            "FleetVehInd": false
        },
        "HoldCode": "N",
        "Vessel": {
            "VesselID": "15712",
            "VesselEstDeparture": "0001-01-01",
            "VesselPortEntry": "GT"
        },
        "Production": {
            "Plant": "G",
            "TargetBuildDate": "2015-03-23"
        }
    }
}